// EVENT 0052
Name "Skill: Play 121-130"

ChangeVariable(11,11,0,2,1,5)
If(1,100,0,121,0)
 If(1,11,0,1,0)
  ShowMessageFace("page65537_fc1",0,0,2,1)
  ShowMessage("\\n<Cornelia>......")
  ShowMessageFace("",0,0,2,2)
  ShowMessage("Cornelia is quietly reading a book.")
  EndEventProcessing()
  0()
 EndIf()
 If(1,11,0,2,0)
  ShowMessageFace("page65537_fc1",0,0,2,3)
  ShowMessage("\\n<Cornelia>I no longer need this page. Maybe it will be useful to you?")
  250(bytes(0x04,0x08,0x6f,0x3a,0x0c,0x52,0x50,0x47,0x3a,0x3a,0x53,0x45,0x08,0x3a,0x0a,0x40,0x6e,0x61,0x6d,0x65,0x49,0x22,0x0a,0x49,0x74,0x65,0x6d,0x31,0x06,0x3a,0x06,0x45,0x54,0x3a,0x0b,0x40,0x70,0x69,0x74,0x63,0x68,0x69,0x69,0x3a,0x0c,0x40,0x76,0x6f,0x6c,0x75,0x6d,0x65,0x69,0x55))
  ChangeInventory_Item(109,0,0,1)
  ShowMessageFace("",0,0,2,4)
  ShowMessage("You obtain [Grimoire Page]!")
  EndEventProcessing()
  0()
 EndIf()
 If(1,11,0,3,0)
  ShowMessageFace("page65537_fc1",0,0,2,5)
  ShowMessage("\\n<Cornelia>I tried to cook. How is it?")
  ShowMessageFace("",0,0,2,6)
  ShowMessage("Cornelia presents a gift.")
  250(bytes(0x04,0x08,0x6f,0x3a,0x0c,0x52,0x50,0x47,0x3a,0x3a,0x53,0x45,0x08,0x3a,0x0a,0x40,0x6e,0x61,0x6d,0x65,0x49,0x22,0x0a,0x49,0x74,0x65,0x6d,0x31,0x06,0x3a,0x06,0x45,0x54,0x3a,0x0b,0x40,0x70,0x69,0x74,0x63,0x68,0x69,0x69,0x3a,0x0c,0x40,0x76,0x6f,0x6c,0x75,0x6d,0x65,0x69,0x55))
  ChangeInventory_Item(364,0,0,1)
  ShowMessageFace("",0,0,2,7)
  ShowMessage("You obtain [Omurice]!")
  EndEventProcessing()
  0()
 EndIf()
 If(1,11,0,4,0)
  ShowMessageFace("page65537_fc1",1,0,2,8)
  ShowMessage("\\n<Cornelia>Come on! Let's have a matchmaking party!")
  ShowMessageFace("",0,0,2,9)
  ShowMessage("Cornelia popped a party popper!")
  ShowMessage("...But nobody joined the party.")
  EndEventProcessing()
  0()
 EndIf()
 If(1,11,0,5,0)
  ShowMessageFace("page65537_fc1",1,0,2,10)
  ShowMessage("\\n<Cornelia>Sometimes even I recklessly play with fire.")
  313(0,121,0,13)
  ShowMessageFace("",0,0,2,11)
  ShowMessage("Cornelia plays with fire in secret.")
  ShowMessage("Whoa! Cornelia caught fire!")
  EndEventProcessing()
  0()
 EndIf()
 0()
EndIf()
If(1,100,0,122,0)
 If(1,11,0,1,0)
  ShowMessageFace("sisterlamia_fc1",0,0,2,12)
  ShowMessage("\\n<Sofia>Goddess, please watch over us...")
  355("interrupt_skill(3302)")
  EndEventProcessing()
  0()
 EndIf()
 If(1,11,0,2,0)
  ShowMessageFace("sisterlamia_fc1",0,0,2,13)
  ShowMessage("\\n<Sofia>Ufufufuu...")
  355("interrupt_skill(3296)")
  EndEventProcessing()
  0()
 EndIf()
 If(1,11,0,3,0)
  ShowMessageFace("sisterlamia_fc1",0,0,2,14)
  ShowMessage("\\n<Sofia>I want to hibernate for a little while.")
  313(0,122,0,11)
  ShowMessageFace("",0,0,2,15)
  ShowMessage("Sofia fell asleep!")
  EndEventProcessing()
  0()
 EndIf()
 If(1,11,0,4,0)
  ShowMessageFace("sisterlamia_fc1",1,0,2,16)
  ShowMessage("\\n<Sofia>Today is my birthday. Come on, let's party! ♪")
  ShowMessageFace("",0,0,2,17)
  ShowMessage("Sofia popped a party popper!")
  ShowMessage("...But nobody joined the party.")
  EndEventProcessing()
  0()
 EndIf()
 If(1,11,0,5,0)
  ShowMessageFace("sisterlamia_fc1",2,0,2,18)
  ShowMessage("\\n<Sofia>Ah! I tripped on my own tail!")
  355("interrupt_skill(3293)")
  EndEventProcessing()
  0()
 EndIf()
 0()
EndIf()
If(1,100,0,123,0)
 If(1,11,0,1,0)
  ShowMessageFace("sisccubus_fc1",0,0,2,19)
  ShowMessage("\\n<Christie>Goddess, give us your blessing...")
  355("interrupt_skill(3302)")
  EndEventProcessing()
  0()
 EndIf()
 If(1,11,0,2,0)
  ShowMessageFace("sisccubus_fc1",1,0,2,20)
  ShowMessage("\\n<Christie>Let's free our body...")
  ShowMessageFace("",0,0,2,21)
  ShowMessage("Christie began to undress!")
  EndEventProcessing()
  0()
 EndIf()
 If(1,11,0,3,0)
  ShowMessageFace("sisccubus_fc1",1,0,2,22)
  ShowMessage("\\n<Christie>A dance in the name of the goddess. ♪")
  355("interrupt_skill(2035)")
  EndEventProcessing()
  0()
 EndIf()
 If(1,11,0,4,0)
  ShowMessageFace("sisccubus_fc1",2,0,2,23)
  ShowMessage("\\n<Christie>Ahh, what an obscene thought... My hand is going to my crotch on its own...")
  313(0,123,0,24)
  ShowMessageFace("",0,0,2,24)
  ShowMessage("Christie is having perverted thoughts...")
  ShowMessage("Christie has become horny!")
  EndEventProcessing()
  0()
 EndIf()
 If(1,11,0,5,0)
  ShowMessageFace("sisccubus_fc1",2,0,2,25)
  ShowMessage("\\n<Christie>I'm going to quit being a sister! I'm going to be a normal succubus again!")
  ShowMessageFace("",0,0,2,26)
  ShowMessage("Christie ran away!")
  ShowMessage("...But she didn't know where to go and immediately came back.")
  EndEventProcessing()
  0()
 EndIf()
 0()
EndIf()
If(1,100,0,124,0)
 If(1,11,0,1,0)
  ShowMessageFace("arikui_fc1",0,0,2,27)
  ShowMessage("\\n<Kyona>I'll just have a little taste...")
  ShowMessageFace("",0,0,2,28)
  ShowMessage("Kyona tried licking the enemy!")
  ShowMessage("...It seems they did not taste very good.")
  EndEventProcessing()
  0()
 EndIf()
 If(1,11,0,2,0)
  ShowMessageFace("arikui_fc1",0,0,2,29)
  ShowMessage("\\n<Kyona>Anteater lick, lick...")
  ShowMessageFace("",0,0,2,30)
  ShowMessage("Kyona is eating ants...")
  EndEventProcessing()
  0()
 EndIf()
 If(1,11,0,3,0)
  ShowMessageFace("arikui_fc1",0,0,2,31)
  ShowMessage("\\n<Kyona>Anteater licking, power up!")
  355("interrupt_skill(2727)")
  EndEventProcessing()
  0()
 EndIf()
 If(1,11,0,4,0)
  ShowMessageFace("arikui_fc1",2,0,2,32)
  ShowMessage("\\n<Kyona>Anteater...")
  ShowMessageFace("",0,0,2,33)
  ShowMessage("Kyona has spaced out...")
  EndEventProcessing()
  0()
 EndIf()
 If(1,11,0,5,0)
  ShowMessageFace("arikui_fc1",0,0,2,34)
  ShowMessage("\\n<Kyona>Rocks! Ha! Ha!")
  355("interrupt_skill(3308)")
  EndEventProcessing()
  0()
 EndIf()
 0()
EndIf()
If(1,100,0,125,0)
 If(1,11,0,1,0)
  ShowMessageFace("grizzly_fc1",0,0,2,35)
  ShowMessage("\\n<Aisha>Rawr... ♪")
  ShowMessageFace("",0,0,2,36)
  ShowMessage("Aisha tried making a cute sound!")
  ShowMessage("...But nobody was listening.")
  EndEventProcessing()
  0()
 EndIf()
 If(1,11,0,2,0)
  ShowMessageFace("grizzly_fc1",0,0,2,37)
  ShowMessage("\\n<Aisha>Wild bear!!")
  355("interrupt_skill(2727)")
  EndEventProcessing()
  0()
 EndIf()
 If(1,11,0,3,0)
  ShowMessageFace("grizzly_fc1",0,0,2,38)
  ShowMessage("\\n<Aisha>Get out of here, young lady...")
  ShowMessageFace("",0,0,2,39)
  ShowMessage("Aisha is practicing her catchphrase.")
  EndEventProcessing()
  0()
 EndIf()
 If(1,11,0,4,0)
  ShowMessageFace("grizzly_fc1",0,0,2,40)
  ShowMessage("\\n<Aisha>All to myself... *munching*")
  ShowMessageFace("",0,0,2,41)
  ShowMessage("Aisha is eating some food she stole.")
  EndEventProcessing()
  0()
 EndIf()
 If(1,11,0,5,0)
  ShowMessageFace("mitubati_fc1",0,0,2,42)
  ShowMessage("\\n<Bee Girl>Honey, lick, lick... Wait, is that a...?!")
  ShowMessageFace("grizzly_fc1",0,0,2,43)
  ShowMessage("\\n<Aisha>A bear!")
  ShowMessageFace("",0,0,2,44)
  ShowMessage("Aisha attacks a passing Bee Girl!")
  ShowMessage("It looks like they're fighting over honey!")
  EndEventProcessing()
  0()
 EndIf()
 0()
EndIf()
If(1,100,0,126,0)
 If(1,11,0,1,0)
  ShowMessageFace("XX-7_fc1",0,0,2,45)
  ShowMessage("\\n<Robin>Always on the mark...")
  ShowMessageFace("",0,0,2,46)
  ShowMessage("Robin places an apple on Luka's head while holding a gun!")
  ShowMessage("She expertly fired a bullet through the apple.")
  EndEventProcessing()
  0()
 EndIf()
 If(1,11,0,2,0)
  ShowMessageFace("XX-7_fc1",0,0,2,47)
  ShowMessage("\\n<Robin>A little short, it seems...")
  355("interrupt_skill(3307)")
  EndEventProcessing()
  0()
 EndIf()
 If(1,11,0,3,0)
  ShowMessageFace("XX-7_fc1",0,0,2,48)
  ShowMessage("\\n<Robin>Blue screen in my brain...")
  313(0,126,0,12)
  ShowMessageFace("",0,0,2,49)
  ShowMessage("Robin was paralyzed")
  EndEventProcessing()
  0()
 EndIf()
 If(1,11,0,4,0)
  ShowMessageFace("XX-7_fc1",0,0,2,50)
  ShowMessage("\\n<Robin>Fire at random mode!")
  355("interrupt_skill(3311)")
  EndEventProcessing()
  0()
 EndIf()
 If(1,11,0,5,0)
  ShowMessageFace("XX-7_fc1",0,0,2,51)
  ShowMessage("\\n<Robin>Always on the mark...")
  ChangeVariable(26,26,0,3,3,1,4)
  ChangeVariable(26,26,4,0,10)
  311(0,1,1,1,26,true)
  ShowMessageFace("",0,0,2,52)
  ShowMessage("Robin places an apple on Luka's head while holding a gun!")
  ShowMessage("She fired a bullet and hit Luka in the face!\\D")
  ShowMessage("Luka takes \\V[26] damage!")
  EndEventProcessing()
  0()
 EndIf()
 0()
EndIf()
If(1,100,0,127,0)
 If(1,11,0,1,0)
  ShowMessageFace("littlebug_fc1",0,0,2,53)
  ShowMessage("\\n<Lippy>Sticky cat's cradle. ♪")
  ShowMessageFace("",0,0,2,54)
  ShowMessage("Lippy is playing sticky cat's cradle.")
  EndEventProcessing()
  0()
 EndIf()
 If(1,11,0,2,0)
  ShowMessageFace("littlebug_fc1",2,0,2,55)
  ShowMessage("\\n<Lippy>That's it! I won't do it!")
  ShowMessageFace("",0,0,2,56)
  ShowMessage("Lippy ran away!")
  ShowMessage("...But she didn't know where to go and immediately came back.")
  EndEventProcessing()
  0()
 EndIf()
 If(1,11,0,3,0)
  ShowMessageFace("littlebug_fc1",0,0,2,57)
  ShowMessage("\\n<Lippy>I'll play at full power! Ohhhhh!")
  ShowMessageFace("",0,0,2,58)
  ShowMessage("Lippy is running around the area!")
  EndEventProcessing()
  0()
 EndIf()
 If(1,11,0,4,0)
  ShowMessageFace("littlebug_fc1",2,0,2,59)
  ShowMessage("\\n<Lippy>I'm just killing time...")
  250(bytes(0x04,0x08,0x6f,0x3a,0x0c,0x52,0x50,0x47,0x3a,0x3a,0x53,0x45,0x08,0x3a,0x0a,0x40,0x6e,0x61,0x6d,0x65,0x49,0x22,0x0a,0x49,0x74,0x65,0x6d,0x31,0x06,0x3a,0x06,0x45,0x54,0x3a,0x0b,0x40,0x70,0x69,0x74,0x63,0x68,0x69,0x69,0x3a,0x0c,0x40,0x76,0x6f,0x6c,0x75,0x6d,0x65,0x69,0x55))
  ChangeInventory_Item(445,0,0,1)
  ShowMessageFace("",0,0,2,60)
  ShowMessage("Lippy is pulling weeds...")
  ShowMessage("You obtain [Weeds]!")
  EndEventProcessing()
  0()
 EndIf()
 If(1,11,0,5,0)
  ShowMessageFace("littlebug_fc1",0,0,2,61)
  ShowMessage("\\n<Lippy>Horahora, I'm amazing at this... I practiced using eggs. ♪")
  ShowMessageFace("",0,0,2,62)
  ShowMessage("Lippy is juggling...")
  ShowMessage("But nobody watched!")
  EndEventProcessing()
  0()
 EndIf()
 0()
EndIf()
If(1,100,0,128,0)
 If(1,11,0,1,0)
  ShowMessageFace("kaniloid_fc1",0,0,2,63)
  ShowMessage("\\n<Jillian>Restarting OS...")
  313(0,128,0,17)
  ShowMessageFace("",0,0,2,64)
  ShowMessage("Jillian's movements have stopped.")
  EndEventProcessing()
  0()
 EndIf()
 If(1,11,0,2,0)
  ShowMessageFace("kaniloid_fc1",0,0,2,65)
  ShowMessage("\\n<Jillian>Fly discovered, cleaning up...")
  355("interrupt_skill(3311)")
  EndEventProcessing()
  0()
 EndIf()
 If(1,11,0,3,0)
  ShowMessageFace("kaniloid_fc1",2,0,2,66)
  ShowMessage("\\n<Jillian>Crab, crab... I did not say anything!")
  ShowMessageFace("",0,0,2,67)
  ShowMessage("Jillian is acting funny...")
  EndEventProcessing()
  0()
 EndIf()
 If(1,11,0,4,0)
  ShowMessageFace("kaniloid_fc1",0,0,2,68)
  ShowMessage("\\n<Jillian>This game has become pretty intense...")
  ShowMessageFace("",0,0,2,69)
  ShowMessage("Jillian is playing rock-paper-scissors by herself.")
  EndEventProcessing()
  0()
 EndIf()
 If(1,11,0,5,0)
  ShowMessageFace("kaniloid_fc1",0,0,2,70)
  ShowMessage("\\n<Jillian>I wonder if the top of my core can be detached? ...Impossible.")
  ShowMessageFace("",0,0,2,71)
  ShowMessage("Jillian is examining her body.")
  EndEventProcessing()
  0()
 EndIf()
 0()
EndIf()
If(1,100,0,129,0)
 If(1,11,0,1,0)
  ShowMessageFace("brunhild_fc1",0,0,2,72)
  ShowMessage("\\n<Hild>Hild, attractive gaze...")
  ShowMessageFace("",0,0,2,73)
  ShowMessage("Hild gazes at the enemy!")
  ShowMessage("...But it looked like she was just staring.")
  EndEventProcessing()
  0()
 EndIf()
 If(1,11,0,2,0)
  ShowMessageFace("brunhild_fc1",0,0,2,74)
  ShowMessage("\\n<Hild>Hild, random attack mode...")
  355("interrupt_skill(3311)")
  EndEventProcessing()
  0()
 EndIf()
 If(1,11,0,3,0)
  ShowMessageFace("brunhild_fc1",0,0,2,75)
  ShowMessage("\\n<Hild>Ah... Mistake!")
  355("interrupt_skill(3293)")
  EndEventProcessing()
  0()
 EndIf()
 If(1,11,0,4,0)
  ShowMessageFace("brunhild_fc1",0,0,2,76)
  ShowMessage("\\n<Hild>I have now been reborn as an angelic kind of robot.")
  ShowMessageFace("",0,0,2,77)
  ShowMessage("Hild is practicing her catchphrase.")
  EndEventProcessing()
  0()
 EndIf()
 If(1,11,0,5,0)
  ShowMessageFace("brunhild_fc1",0,0,2,78)
  ShowMessage("\\n<Hild>Hild will draw a picture on the ground.")
  ShowMessageFace("",0,0,2,79)
  ShowMessage("Hild is drawing graffiti on the ground.")
  EndEventProcessing()
  0()
 EndIf()
 0()
EndIf()
If(1,100,0,130,0)
 If(1,11,0,1,0)
  ShowMessageFace("ghost_fc1",0,0,2,80)
  ShowMessage("\\n<Carrie>My hair grows even though I am a ghost...")
  ShowMessageFace("",0,0,2,81)
  ShowMessage("Carrie has a pair of scissors in one of her floating hands. It seems she is going to cut her hair.")
  EndEventProcessing()
  0()
 EndIf()
 If(1,11,0,2,0)
  ShowMessageFace("ghost_fc1",1,0,2,82)
  ShowMessage("\\n<Carrie>Ufufu...")
  355("interrupt_skill(3295)")
  EndEventProcessing()
  0()
 EndIf()
 If(1,11,0,3,0)
  ShowMessageFace("ghost_fc1",1,0,2,83)
  ShowMessage("\\n<Carrie>My birthday and the anniversary of my death are on the same day. It is convenient because we can celebrate them at the same time.")
  ShowMessageFace("",0,0,2,84)
  ShowMessage("Carrie popped a party popper!")
  ShowMessage("...But nobody joined the party.")
  EndEventProcessing()
  0()
 EndIf()
 If(1,11,0,4,0)
  ShowMessageFace("ghost_fc1",0,0,2,85)
  ShowMessage("\\n<Carrie>You gotta be kidding me! Someone died?!")
  250(bytes(0x04,0x08,0x6f,0x3a,0x0c,0x52,0x50,0x47,0x3a,0x3a,0x53,0x45,0x08,0x3a,0x0a,0x40,0x6e,0x61,0x6d,0x65,0x49,0x22,0x0a,0x49,0x74,0x65,0x6d,0x31,0x06,0x3a,0x06,0x45,0x54,0x3a,0x0b,0x40,0x70,0x69,0x74,0x63,0x68,0x69,0x69,0x3a,0x0c,0x40,0x76,0x6f,0x6c,0x75,0x6d,0x65,0x69,0x55))
  ChangeInventory_Item(444,0,0,1)
  ShowMessageFace("",0,0,2,86)
  ShowMessage("Carrie discovers a corpse!")
  ShowMessage("You obtain a [Skull]!")
  EndEventProcessing()
  0()
 EndIf()
 If(1,11,0,5,0)
  ShowMessageFace("ghost_fc1",0,0,2,87)
  ShowMessage("\\n<Carrie>I have unfinished business...")
  ShowMessageFace("",0,0,2,88)
  ShowMessage("Carrie puts some of Chrome's hair into a straw doll!")
  ShowMessage("She then nailed it to a tree with a spike.")
  EndEventProcessing()
  0()
 EndIf()
 0()
EndIf()
0()
